{
	"name": "blue-rose",
	"title": "Blue Rose",
	"description": "A basic system for Blue Rose, possibly extensible to Fantasy AGE in general",
	"version": "0.2.0",
	"author": "studio315b",
	"scripts": [],
	"esmodules": ["blue-rose.js"],
	"styles": ["blue-rose.css"],
	"packs": [
		{
			"entity": "Item",
			"name": "focuses",
			"label": "Focuses",
			"system": "blue-rose",
			"path": "./packs/focuses.db"
		},
		{
			"entity": "Item",
			"name": "items",
			"label": "Items",
			"system": "blue-rose",
			"path": "./packs/items.db"
		}
	],
	"languages": [],
	"gridDistance": 1,
	"gridUnits": "yd",
	"minimumCoreVersion": "0.5.0",
	"compatibleCoreVersion": "0.5.0",
	"url": "https://gitlab.com/studio315b/blue-rose",
	"manifest": "https://gitlab.com/studio315b/blue-rose/-/raw/master/src/system.json",
	"download": "https://gitlab.com/studio315b/blue-rose/-/raw/v0.2.0/package/blue-rose-v0.2.0.zip",
	"license": "https://gitlab.com/studio315b/blue-rose/-/blob/master/license.adoc",
	"readme": "https://gitlab.com/studio315b/blue-rose/-/blob/master/readme.adoc",
	"bugs": "https://gitlab.com/studio315b/blue-rose/-/issues",
	"changelog": ""
}